<svg width="70" height="70" viewBox="0 0 70 70" fill="none" xmlns="http://www.w3.org/2000/svg">
<path d="M52.353 23.1735L52.654 23.471C52.7487 23.5657 52.8611 23.6408 52.9848 23.6921C53.1085 23.7433 53.2411 23.7697 53.375 23.7697C53.5089 23.7697 53.6415 23.7433 53.7652 23.6921C53.8889 23.6408 54.0013 23.5657 54.096 23.471C54.1907 23.3764 54.2658 23.264 54.317 23.1402C54.3683 23.0165 54.3946 22.8839 54.3946 22.75C54.3946 22.6161 54.3683 22.4835 54.317 22.3598C54.2658 22.2361 54.1907 22.1237 54.096 22.029L53.0775 21L52.059 19.978C51.8673 19.7864 51.6073 19.6787 51.3362 19.6787C51.0652 19.6787 50.8052 19.7864 50.6135 19.978C50.4218 20.1697 50.3141 20.4297 50.3141 20.7008C50.3141 20.9719 50.4218 21.2319 50.6135 21.4235L50.9145 21.721L48.692 23.9435C45.9867 21.486 42.669 19.8029 39.088 19.0715V12.5405H41.1285C41.2675 12.5487 41.4067 12.5283 41.5376 12.4807C41.6684 12.4332 41.7882 12.3593 41.8895 12.2638C41.9908 12.1683 42.0715 12.053 42.1267 11.9252C42.1818 11.7973 42.2103 11.6595 42.2103 11.5203C42.2103 11.381 42.1818 11.2433 42.1267 11.1154C42.0715 10.9876 41.9908 10.8723 41.8895 10.7768C41.7882 10.6813 41.6684 10.6074 41.5376 10.5598C41.4067 10.5122 41.2675 10.4919 41.1285 10.5H28.8785C28.7395 10.4919 28.6003 10.5122 28.4694 10.5598C28.3386 10.6074 28.2188 10.6813 28.1175 10.7768C28.0162 10.8723 27.9355 10.9876 27.8803 11.1154C27.8252 11.2433 27.7967 11.381 27.7967 11.5203C27.7967 11.6595 27.8252 11.7973 27.8803 11.9252C27.9355 12.053 28.0162 12.1683 28.1175 12.2638C28.2188 12.3593 28.3386 12.4332 28.4694 12.4807C28.6003 12.5283 28.7395 12.5487 28.8785 12.5405H30.919V19.0785C26.5014 19.9784 22.5055 22.314 19.5536 25.7215C16.6018 29.129 14.8597 33.4171 14.5988 37.9178C14.3378 42.4185 15.5727 46.8792 18.1111 50.6049C20.6494 54.3307 24.3487 57.1124 28.6326 58.5168C32.9166 59.9211 37.5448 59.8692 41.7962 58.3691C46.0476 56.8691 49.6835 54.0051 52.1377 50.2234C54.5918 46.4416 55.7264 41.9544 55.3646 37.4607C55.0028 32.9669 53.165 28.719 50.1375 25.3785L52.353 23.1735ZM32.9595 12.5405H37.0405V18.7705C35.6838 18.6305 34.3162 18.6305 32.9595 18.7705V12.5405ZM35 57.4595C31.3658 57.4595 27.8131 56.3819 24.7914 54.3628C21.7696 52.3437 19.4145 49.4739 18.0237 46.1164C16.633 42.7588 16.2691 39.0642 16.9781 35.4998C17.6871 31.9354 19.4371 28.6612 22.0069 26.0915C24.5767 23.5217 27.8508 21.7716 31.4152 21.0626C34.9796 20.3536 38.6742 20.7175 42.0318 22.1083C45.3894 23.499 48.2592 25.8542 50.2783 28.8759C52.2973 31.8977 53.375 35.4503 53.375 39.0845C53.3694 43.9562 51.4317 48.6267 47.9869 52.0715C44.5422 55.5163 39.8716 57.454 35 57.4595Z" fill="#2A2F38"/>
<path d="M26.5335 29.1725C26.4403 29.0705 26.3274 28.9883 26.2015 28.9312C26.0757 28.874 25.9395 28.8429 25.8013 28.8398C25.6632 28.8368 25.5258 28.8618 25.3975 28.9134C25.2693 28.9649 25.1528 29.042 25.0552 29.1398C24.9576 29.2377 24.8808 29.3543 24.8296 29.4827C24.7783 29.6111 24.7536 29.7485 24.757 29.8867C24.7604 30.0249 24.7918 30.1609 24.8493 30.2866C24.9068 30.4124 24.9892 30.5251 25.0915 30.618L34.279 39.8055C34.4705 39.9962 34.7298 40.1032 35 40.1032C35.2702 40.1032 35.5295 39.9962 35.721 39.8055C35.8159 39.7106 35.8912 39.598 35.9426 39.474C35.994 39.3499 36.0204 39.217 36.0204 39.0828C36.0204 38.9486 35.994 38.8156 35.9426 38.6916C35.8912 38.5676 35.8159 38.4549 35.721 38.36L26.5335 29.1725Z" fill="#2A2F38"/>
</svg>
