<svg width="70" height="70" viewBox="0 0 70 70" fill="none" xmlns="http://www.w3.org/2000/svg">
<path d="M45.9305 25.55L51.6355 19.8835C52.6963 20.5634 53.9716 20.8252 55.2145 20.6183C56.4573 20.4115 57.5791 19.7506 58.3625 18.7639C59.1458 17.7771 59.535 16.5346 59.4546 15.2773C59.3742 14.0199 58.8299 12.8372 57.9272 11.9582C57.0245 11.0793 55.8277 10.5667 54.5686 10.5199C53.3096 10.473 52.078 10.8952 51.1124 11.7046C50.1469 12.514 49.5162 13.653 49.3425 14.9009C49.1689 16.1488 49.4646 17.4168 50.1725 18.459L44.4885 24.108C44.3182 24.3032 44.2283 24.5558 44.2371 24.8147C44.2459 25.0736 44.3527 25.3195 44.5358 25.5027C44.719 25.6859 44.9649 25.7927 45.2238 25.8015C45.4827 25.8102 45.7353 25.7204 45.9305 25.55ZM54.397 12.5335C55.0027 12.5335 55.5948 12.7132 56.0984 13.0497C56.6021 13.3862 56.9946 13.8645 57.2264 14.4241C57.4582 14.9837 57.5188 15.5994 57.4007 16.1935C57.2825 16.7876 56.9908 17.3333 56.5625 17.7616C56.1342 18.1899 55.5885 18.4815 54.9945 18.5997C54.4004 18.7179 53.7846 18.6572 53.225 18.4254C52.6654 18.1936 52.1871 17.8011 51.8506 17.2975C51.5141 16.7938 51.3345 16.2017 51.3345 15.596C51.3382 14.7856 51.6623 14.0095 52.236 13.4371C52.8097 12.8647 53.5865 12.5424 54.397 12.5405V12.5335Z" fill="#2A2F38"/>
<path d="M54.418 49.2905C53.3976 49.2891 52.4008 49.5966 51.5585 50.1725L47.8975 46.487C47.7039 46.3093 47.4492 46.2131 47.1864 46.2182C46.9237 46.2234 46.673 46.3296 46.4865 46.5147C46.3 46.6999 46.192 46.9498 46.1849 47.2125C46.1778 47.4752 46.2722 47.7306 46.4485 47.9255L50.1305 51.632C49.5177 52.5851 49.2397 53.7151 49.3405 54.8437C49.4414 55.9723 49.9152 57.0352 50.6872 57.8646C51.4593 58.694 52.4855 59.2426 53.6041 59.4238C54.7226 59.6051 55.8696 59.4087 56.864 58.8656C57.8585 58.3225 58.6438 57.4637 59.0958 56.4247C59.5479 55.3857 59.6411 54.2257 59.3607 53.1278C59.0802 52.03 58.4421 51.0568 57.5471 50.362C56.6521 49.6671 55.5511 49.2901 54.418 49.2905ZM54.418 57.4595C53.8123 57.4595 53.2202 57.2799 52.7166 56.9434C52.2129 56.6069 51.8204 56.1286 51.5886 55.569C51.3568 55.0094 51.2962 54.3936 51.4143 53.7996C51.5325 53.2055 51.8242 52.6598 52.2525 52.2315C52.6808 51.8032 53.2265 51.5115 53.8205 51.3934C54.4146 51.2752 55.0304 51.3358 55.59 51.5676C56.1496 51.7994 56.6279 52.192 56.9644 52.6956C57.3009 53.1992 57.4805 53.7913 57.4805 54.397C57.4796 55.209 57.1566 55.9874 56.5825 56.5615C56.0084 57.1356 55.2299 57.4586 54.418 57.4595Z" fill="#2A2F38"/>
<path d="M19.8275 18.466C20.5425 17.4149 20.8415 16.1357 20.6666 14.8766C20.4917 13.6175 19.8554 12.4683 18.881 11.6519C17.9066 10.8355 16.6638 10.4101 15.3935 10.4583C14.1232 10.5065 12.9161 11.0248 12.0064 11.9127C11.0967 12.8006 10.5493 13.9947 10.4703 15.2634C10.3913 16.5322 10.7864 17.785 11.5789 18.7789C12.3714 19.7728 13.5049 20.4368 14.7594 20.6422C16.0138 20.8476 17.2999 20.5797 18.368 19.8905L24.073 25.55C24.2648 25.7402 24.5239 25.8471 24.794 25.8475C24.9953 25.8441 25.1911 25.7813 25.3569 25.6671C25.5227 25.5528 25.651 25.3921 25.7258 25.2052C25.8005 25.0182 25.8184 24.8134 25.7772 24.6163C25.736 24.4192 25.6375 24.2387 25.494 24.0975L19.8275 18.466ZM12.544 15.603C12.544 14.9973 12.7236 14.4052 13.0601 13.9015C13.3966 13.3979 13.8749 13.0054 14.4345 12.7736C14.9941 12.5418 15.6099 12.4811 16.204 12.5993C16.798 12.7175 17.3437 13.0092 17.772 13.4375C18.2003 13.8658 18.492 14.4114 18.6102 15.0055C18.7283 15.5996 18.6677 16.2153 18.4359 16.7749C18.2041 17.3345 17.8116 17.8128 17.3079 18.1493C16.8043 18.4859 16.2122 18.6655 15.6065 18.6655C14.7946 18.6645 14.0161 18.3416 13.442 17.7675C12.8679 17.1933 12.5449 16.4149 12.544 15.603Z" fill="#2A2F38"/>
<path d="M22.106 46.4871L18.445 50.1725C17.3939 49.4576 16.1148 49.1586 14.8557 49.3334C13.5966 49.5083 12.4473 50.1447 11.6309 51.119C10.8145 52.0934 10.3891 53.3363 10.4373 54.6066C10.4855 55.8768 11.0038 57.0839 11.8917 57.9936C12.7796 58.9033 13.9737 59.4508 15.2425 59.5298C16.5112 59.6088 17.764 59.2137 18.7579 58.4211C19.7518 57.6286 20.4159 56.4952 20.6213 55.2407C20.8266 53.9862 20.5587 52.7002 19.8695 51.632L23.5515 47.9255C23.7423 47.7339 23.8491 47.4743 23.8484 47.2038C23.8477 46.9334 23.7397 46.6743 23.548 46.4835C23.3563 46.2928 23.0967 46.186 22.8263 46.1866C22.5559 46.1873 22.2968 46.2954 22.106 46.4871ZM15.582 57.4595C14.9763 57.4595 14.3842 57.2799 13.8806 56.9434C13.3769 56.6069 12.9844 56.1286 12.7526 55.569C12.5208 55.0094 12.4602 54.3937 12.5783 53.7996C12.6965 53.2055 12.9882 52.6598 13.4165 52.2315C13.8448 51.8032 14.3905 51.5116 14.9845 51.3934C15.5786 51.2752 16.1944 51.3359 16.754 51.5677C17.3136 51.7995 17.7919 52.192 18.1284 52.6956C18.4649 53.1992 18.6445 53.7913 18.6445 54.397C18.6427 55.2087 18.3194 55.9866 17.7455 56.5605C17.1715 57.1344 16.3937 57.4577 15.582 57.4595Z" fill="#2A2F38"/>
<path d="M23.751 33.978H20.601C20.3478 32.7391 19.6436 31.6384 18.625 30.8892C17.6063 30.14 16.3458 29.7956 15.0878 29.9229C13.8297 30.0502 12.6637 30.64 11.8158 31.578C10.9678 32.5161 10.4984 33.7355 10.4984 35C10.4984 36.2645 10.9678 37.4839 11.8158 38.422C12.6637 39.36 13.8297 39.9498 15.0878 40.0771C16.3458 40.2044 17.6063 39.86 18.625 39.1108C19.6436 38.3616 20.3478 37.2609 20.601 36.022H23.751C24.022 36.022 24.282 35.9143 24.4737 35.7227C24.6653 35.531 24.773 35.271 24.773 35C24.773 34.7289 24.6653 34.469 24.4737 34.2773C24.282 34.0857 24.022 33.978 23.751 33.978ZM15.582 38.0625C14.9763 38.0625 14.3842 37.8829 13.8806 37.5464C13.3769 37.2099 12.9844 36.7316 12.7526 36.172C12.5208 35.6124 12.4602 34.9966 12.5783 34.4025C12.6965 33.8085 12.9882 33.2628 13.4165 32.8345C13.8448 32.4062 14.3905 32.1145 14.9845 31.9963C15.5786 31.8782 16.1944 31.9388 16.754 32.1706C17.3136 32.4024 17.7919 32.7949 18.1284 33.2986C18.4649 33.8022 18.6445 34.3943 18.6445 35C18.6436 35.8119 18.3206 36.5904 17.7465 37.1645C17.1724 37.7386 16.3939 38.0616 15.582 38.0625Z" fill="#2A2F38"/>
<path d="M49.3745 36.022C49.6277 37.2609 50.3319 38.3616 51.3505 39.1108C52.3692 39.86 53.6297 40.2044 54.8877 40.0771C56.1458 39.9498 57.3118 39.36 58.1597 38.422C59.0076 37.4839 59.4771 36.2645 59.4771 35C59.4771 33.7355 59.0076 32.5161 58.1597 31.578C57.3118 30.64 56.1458 30.0502 54.8877 29.9229C53.6297 29.7956 52.3692 30.14 51.3505 30.8892C50.3319 31.6384 49.6277 32.7391 49.3745 33.978H46.2245C45.9535 33.978 45.6935 34.0857 45.5018 34.2773C45.3102 34.469 45.2025 34.7289 45.2025 35C45.2025 35.271 45.3102 35.531 45.5018 35.7227C45.6935 35.9143 45.9535 36.022 46.2245 36.022H49.3745ZM54.376 31.9375C54.9817 31.9375 55.5738 32.1171 56.0774 32.4536C56.5811 32.7901 56.9736 33.2684 57.2054 33.828C57.4372 34.3876 57.4978 35.0034 57.3796 35.5975C57.2615 36.1915 56.9698 36.7372 56.5415 37.1655C56.1132 37.5938 55.5675 37.8855 54.9735 38.0036C54.3794 38.1218 53.7636 38.0612 53.204 37.8294C52.6444 37.5976 52.1661 37.2051 51.8296 36.7014C51.4931 36.1978 51.3135 35.6057 51.3135 35C51.3144 34.188 51.6374 33.4096 52.2115 32.8355C52.7856 32.2614 53.5641 31.9384 54.376 31.9375Z" fill="#2A2F38"/>
<path d="M34.979 36.5295C34.6757 36.5289 34.3789 36.6182 34.1264 36.7862C33.8738 36.9542 33.6768 37.1934 33.5602 37.4735C33.4436 37.7535 33.4128 38.0619 33.4715 38.3595C33.5303 38.6571 33.676 38.9305 33.8903 39.1453C34.1045 39.36 34.3777 39.5064 34.6751 39.5658C34.9726 39.6253 35.281 39.5951 35.5613 39.4792C35.8417 39.3633 36.0813 39.1668 36.2499 38.9146C36.4185 38.6624 36.5085 38.3659 36.5085 38.0625C36.5076 37.6569 36.3463 37.268 36.0597 36.9808C35.7732 36.6936 35.3847 36.5314 34.979 36.5295ZM34.979 38.5735C34.8779 38.5735 34.7791 38.5436 34.6951 38.4874C34.6111 38.4313 34.5456 38.3515 34.5069 38.2581C34.4682 38.1647 34.4581 38.062 34.4778 37.9629C34.4975 37.8637 34.5462 37.7727 34.6177 37.7012C34.6891 37.6297 34.7802 37.5811 34.8793 37.5614C34.9784 37.5416 35.0812 37.5518 35.1746 37.5904C35.2679 37.6291 35.3477 37.6946 35.4039 37.7786C35.46 37.8627 35.49 37.9615 35.49 38.0625C35.49 38.1981 35.4362 38.328 35.3403 38.4239C35.2445 38.5197 35.1145 38.5735 34.979 38.5735Z" fill="#2A2F38"/>
<path d="M41.104 31.094V28.875C41.104 27.2505 40.4587 25.6926 39.31 24.544C38.1614 23.3953 36.6035 22.75 34.979 22.75C33.3546 22.75 31.7966 23.3953 30.648 24.544C29.4993 25.6926 28.854 27.2505 28.854 28.875V31.094C28.258 31.3055 27.7419 31.6962 27.3766 32.2126C27.0113 32.7289 26.8146 33.3455 26.8135 33.978V42.147C26.8144 42.9589 27.1374 43.7374 27.7115 44.3115C28.2856 44.8856 29.0641 45.2086 29.876 45.2095H40.082C40.8939 45.2086 41.6724 44.8856 42.2465 44.3115C42.8206 43.7374 43.1436 42.9589 43.1445 42.147V33.978C43.1434 33.3455 42.9467 32.7289 42.5814 32.2126C42.2161 31.6962 41.7001 31.3055 41.104 31.094ZM34.979 24.794C36.0611 24.7958 37.0984 25.2263 37.8639 25.9911C38.6294 26.756 39.0607 27.7929 39.0635 28.875V30.9155H30.8945V28.875C30.8964 27.7923 31.3273 26.7545 32.0929 25.9889C32.8585 25.2233 33.8963 24.7924 34.979 24.7905V24.794ZM41.104 42.1505C41.104 42.2845 41.0775 42.4173 41.0261 42.5411C40.9747 42.6649 40.8994 42.7773 40.8045 42.8719C40.7095 42.9666 40.5968 43.0415 40.4728 43.0925C40.3489 43.1435 40.2161 43.1695 40.082 43.169H29.876C29.742 43.1695 29.6091 43.1435 29.4852 43.0925C29.3612 43.0415 29.2485 42.9666 29.1536 42.8719C29.0586 42.7773 28.9833 42.6649 28.9319 42.5411C28.8805 42.4173 28.854 42.2845 28.854 42.1505V33.978C28.854 33.844 28.8805 33.7112 28.9319 33.5874C28.9833 33.4636 29.0586 33.3512 29.1536 33.2566C29.2485 33.1619 29.3612 33.087 29.4852 33.036C29.6091 32.985 29.742 32.959 29.876 32.9595H40.082C40.2161 32.959 40.3489 32.985 40.4728 33.036C40.5968 33.087 40.7095 33.1619 40.8045 33.2566C40.8994 33.3512 40.9747 33.4636 41.0261 33.5874C41.0775 33.7112 41.104 33.844 41.104 33.978V42.1505Z" fill="#2A2F38"/>
</svg>
